{
    
    "events":[
        
        {
        "username":"swornim",
        "eventNumber":"1",
        "eventName":"EPL",
        "leftTeamName":"Manchester United",
        "rightTeamName":"Barcelona"
    }
        
        ,{
            "username":"bikram shah",
        "eventNumber":"2",
        "eventName":"EPL",
        "leftTeamName":"Manchester City",
        "rightTeamName":"Aston Villa"
    }
        
        ,{
            "username":"hmm kahi ke ho",
        "eventNumber":"1",
        "eventName":"EPL",
        "leftTeamName":"LiverPool ",
        "rightTeamName":"Arsenal"
    }
        
        ,{
            "username":"shah bikram shah",
        "eventNumber":"1",
        "eventName":"EPL",
        "leftTeamName":"Sunderlan ",
        "rightTeamName":"Chealsea"
    }
        
    ]
    
}